{
    "file_num": 6,
    "file": [
        {
            "name": "test1.txt",
            "type": "file",
            "last_modification_time": "0",
            "access": {}
        },
        {
            "name": "test2.md",
            "type": "file",
            "last_modification_time": "1",
            "access": {
                "password": "PE3tnRC5jEv+lzdBirY/ex1zaYO+0CTpNthFSQpm3Zk="
            }
        },
        {
            "name": "test3",
            "type": "folder",
            "last_modification_time": "2",
            "access": {
                "user": [
                    "develop"
                ]
            }
        },
        {
            "name": "test4.php",
            "type": "file",
            "last_modification_time": "3",
            "access": {
                "user": [
                    "develop",
                    "test"
                ],
                "password": "PE3tnRC5jEv+lzdBirY/ex1zaYO+0CTpNthFSQpm3Zk="
            }
        },
        {
            "name": "test.jpg",
            "type": "file",
            "last_modification_time": "0",
            "access": {}
        },
        {
            "name": "test.exe",
            "type": "file",
            "last_modification_time": "0",
            "access": {}
        }
    ]
}